net\phptravels\aut\LoginTest.class
net\phptravels\navigation\NavigationTest.class
net\phptravels\actionsOnMainPage\ClickCarsPageTest.class
net\phptravels\aut\LoginViaAccountDropdownTest.class
net\phptravels\location\EnterLocationTest.class
net\phptravels\actionsOnMainPage\ClickFlightsPageTest.class
net\phptravels\actionsOnMainPage\ClickToursPageTest.class
net\phptravels\aut\SignUpTest.class
net\phptravels\actionsOnMainPage\ClickHotelsPageTest.class
